digraph {
	0;
	1;
	2;
	3;
	4;
	5;

	0 -> 1  [label = 1.00];
	0 -> 1  [label = 1.00];
	2 -> 3  [label = 1.00];
	2 -> 4  [label = 1.00];
	2 -> 5  [label = 1.00];
	3 -> 4  [label = 1.00];
	3 -> 5  [label = 1.00];
	4 -> 5  [label = 1.00];
	5 -> 2  [label = 1.00];
}
