\relax 
\providecommand\babel@aux[2]{}
\@nameuse{bbl@beforestart}
\catcode `:\active 
\catcode `;\active 
\catcode `!\active 
\catcode `?\active 
\providecommand\hyper@newdestlabel[2]{}
\providecommand\HyperFirstAtBeginDocument{\AtBeginDocument}
\HyperFirstAtBeginDocument{\ifx\hyper@anchor\@undefined
\global\let\oldnewlabel\newlabel
\gdef\newlabel#1#2{\newlabelxx{#1}#2}
\gdef\newlabelxx#1#2#3#4#5#6{\oldnewlabel{#1}{{#2}{#3}}}
\AtEndDocument{\ifx\hyper@anchor\@undefined
\let\newlabel\oldnewlabel
\fi}
\fi}
\global\let\hyper@last\relax 
\gdef\HyperFirstAtBeginDocument#1{#1}
\providecommand\HyField@AuxAddToFields[1]{}
\providecommand\HyField@AuxAddToCoFields[2]{}
\babel@aux{french}{}
\@writefile{toc}{\contentsline {section}{\tocsection {}{1}{Introduction : l'algèbre moderne}}{1}{section.1}\protected@file@percent }
\@writefile{toc}{\contentsline {subsection}{\tocsubsection {}{1.1}{L'Algèbre ou l'analyse des équations}}{1}{subsection.1.1}\protected@file@percent }
\@writefile{toc}{\contentsline {subsection}{\tocsubsection {}{1.2}{L'algèbre ou l'axiomatisation des structures algébriques}}{2}{subsection.1.2}\protected@file@percent }
\@writefile{toc}{\contentsline {subsection}{\tocsubsection {}{1.3}{Intérêts de l'axiomatisation }}{3}{subsection.1.3}\protected@file@percent }
\@writefile{toc}{\contentsline {subsection}{\tocsubsection {}{1.4}{L'Algèbre moderne}}{4}{subsection.1.4}\protected@file@percent }
\@writefile{toc}{\contentsline {subsection}{\tocsubsection {}{1.5}{Bourbaki}}{4}{subsection.1.5}\protected@file@percent }
\@writefile{toc}{\contentsline {section}{\tocsection {}{2}{Catégories}}{4}{section.2}\protected@file@percent }
\@writefile{toc}{\contentsline {subsection}{\tocsubsection {}{2.1}{Définition}}{4}{subsection.2.1}\protected@file@percent }
\@writefile{toc}{\contentsline {subsection}{\tocsubsection {}{2.2}{Exemples}}{5}{subsection.2.2}\protected@file@percent }
\@writefile{toc}{\contentsline {subsubsection}{\tocsubsubsection {}{2.2.1}{Catégories <<concrètes>>}}{5}{subsubsection.2.2.1}\protected@file@percent }
\@writefile{toc}{\contentsline {subsubsection}{\tocsubsubsection {}{2.2.2}{Catégories <<non-concrètes>>}}{5}{subsubsection.2.2.2}\protected@file@percent }
\@writefile{toc}{\contentsline {subsubsection}{\tocsubsubsection {}{2.2.3}{Contre-exemple}}{6}{subsubsection.2.2.3}\protected@file@percent }
\@writefile{toc}{\contentsline {subsection}{\tocsubsection {}{2.3}{Catégories petites et localement petites}}{6}{subsection.2.3}\protected@file@percent }
\@writefile{toc}{\contentsline {subsection}{\tocsubsection {}{2.4}{Constructions de catégories}}{8}{subsection.2.4}\protected@file@percent }
\@writefile{toc}{\contentsline {subsubsection}{\tocsubsubsection {}{2.4.1}{Catégories associées à des ensembles partiellement ordonnés}}{8}{subsubsection.2.4.1}\protected@file@percent }
\@writefile{toc}{\contentsline {subsubsection}{\tocsubsubsection {}{2.4.2}{Catégorie associée à un graphe}}{9}{subsubsection.2.4.2}\protected@file@percent }
\@writefile{toc}{\contentsline {subsubsection}{\tocsubsubsection {}{2.4.3}{Union disjointe de catégories}}{11}{subsubsection.2.4.3}\protected@file@percent }
\@writefile{toc}{\contentsline {subsubsection}{\tocsubsubsection {}{2.4.4}{Joint de catégories}}{11}{subsubsection.2.4.4}\protected@file@percent }
\@writefile{toc}{\contentsline {subsubsection}{\tocsubsubsection {}{2.4.5}{Produit de catégories}}{12}{subsubsection.2.4.5}\protected@file@percent }
\@writefile{toc}{\contentsline {section}{\tocsection {}{3}{Propriétés des morphismes}}{12}{section.3}\protected@file@percent }
\@writefile{toc}{\contentsline {subsection}{\tocsubsection {}{3.1}{Isomorphisme dans une Catégorie}}{12}{subsection.3.1}\protected@file@percent }
\@writefile{toc}{\contentsline {subsection}{\tocsubsection {}{3.2}{Monomorphismes et Applications Injectives}}{12}{subsection.3.2}\protected@file@percent }
\@writefile{toc}{\contentsline {subsection}{\tocsubsection {}{3.3}{Epimorphisme dans une catégorie}}{14}{subsection.3.3}\protected@file@percent }
\@writefile{toc}{\contentsline {section}{\tocsection {}{4}{Catégorie en informatique}}{16}{section.4}\protected@file@percent }
\@writefile{toc}{\contentsline {subsection}{\tocsubsection {}{4.1}{Exemple de catégorie en informatique}}{16}{subsection.4.1}\protected@file@percent }
\@writefile{toc}{\contentsline {section}{\tocsection {}{5}{Produit dans une catégorie}}{17}{section.5}\protected@file@percent }
\@writefile{toc}{\contentsline {subsection}{\tocsubsection {}{5.1}{Exemples de produits}}{17}{subsection.5.1}\protected@file@percent }
\@writefile{toc}{\contentsline {subsection}{\tocsubsection {}{5.2}{Exemple de départ : produit cartésien dans les ensembles}}{18}{subsection.5.2}\protected@file@percent }
\@writefile{toc}{\contentsline {subsection}{\tocsubsection {}{5.3}{Produit dans une catégorie}}{18}{subsection.5.3}\protected@file@percent }
\@writefile{toc}{\contentsline {subsection}{\tocsubsection {}{5.4}{Propriétés sur le produit d'objets dans une catégorie}}{19}{subsection.5.4}\protected@file@percent }
\@writefile{toc}{\contentsline {subsection}{\tocsubsection {}{5.5}{Proposition 7}}{20}{subsection.5.5}\protected@file@percent }
\@writefile{toc}{\contentsline {subsection}{\tocsubsection {}{5.6}{Proposition 8}}{22}{subsection.5.6}\protected@file@percent }
\@writefile{toc}{\contentsline {subsection}{\tocsubsection {}{5.7}{Propriété 9}}{25}{subsection.5.7}\protected@file@percent }
\newlabel{tocindent-1}{0pt}
\newlabel{tocindent0}{0pt}
\newlabel{tocindent1}{19.18437pt}
\newlabel{tocindent2}{28.62328pt}
\newlabel{tocindent3}{0pt}
\gdef \@abspage@last{26}
