\relax 
\providecommand\hyper@newdestlabel[2]{}
\catcode `:\active 
\catcode `;\active 
\catcode `!\active 
\catcode `?\active 
\providecommand\HyperFirstAtBeginDocument{\AtBeginDocument}
\HyperFirstAtBeginDocument{\ifx\hyper@anchor\@undefined
\global\let\oldcontentsline\contentsline
\gdef\contentsline#1#2#3#4{\oldcontentsline{#1}{#2}{#3}}
\global\let\oldnewlabel\newlabel
\gdef\newlabel#1#2{\newlabelxx{#1}#2}
\gdef\newlabelxx#1#2#3#4#5#6{\oldnewlabel{#1}{{#2}{#3}}}
\AtEndDocument{\ifx\hyper@anchor\@undefined
\let\contentsline\oldcontentsline
\let\newlabel\oldnewlabel
\fi}
\fi}
\global\let\hyper@last\relax 
\gdef\HyperFirstAtBeginDocument#1{#1}
\providecommand\HyField@AuxAddToFields[1]{}
\providecommand\HyField@AuxAddToCoFields[2]{}
\select@language{french}
\@writefile{toc}{\select@language{french}}
\@writefile{lof}{\select@language{french}}
\@writefile{lot}{\select@language{french}}
\@writefile{toc}{\contentsline {section}{\tocsection {}{}{Introduction : l'alg\IeC {\`e}bre moderne}}{1}{section*.2}}
\@writefile{toc}{\contentsline {paragraph}{\tocparagraph {}{}{\bf  L'Alg\IeC {\`e}bre ou l'analyse des \IeC {\'e}quations}}{1}{section*.3}}
\@writefile{toc}{\contentsline {paragraph}{\tocparagraph {}{}{\bf  L'alg\IeC {\`e}bre ou l'axiomatisation des structures alg\IeC {\'e}briques}}{2}{section*.4}}
\@writefile{toc}{\contentsline {paragraph}{\tocparagraph {}{}{\bf  Int\IeC {\'e}r\IeC {\^e}ts de l'axiomatisation }}{3}{section*.5}}
\@writefile{toc}{\contentsline {paragraph}{\tocparagraph {}{}{\bf  L'Alg\IeC {\`e}bre moderne}}{4}{section*.6}}
\@writefile{toc}{\contentsline {paragraph}{\tocparagraph {}{}{\bf  Bourbaki}}{4}{section*.7}}
\@writefile{toc}{\contentsline {section}{\tocsection {}{1}{Cat\'egories}}{4}{section.1}}
\@writefile{toc}{\contentsline {subsection}{\tocsubsection {}{1.1}{D\'efinitions et exemples}}{5}{subsection.1.1}}
\@writefile{toc}{\contentsline {subsubsection}{\tocsubsubsection {}{1.1.1}{D\'efinition}}{5}{subsubsection.1.1.1}}
\@writefile{toc}{\contentsline {subsubsection}{\tocsubsubsection {}{1.1.2}{Cat\IeC {\'e}gories <<concr\IeC {\`e}tes>>}}{5}{subsubsection.1.1.2}}
\@writefile{toc}{\contentsline {subsubsection}{\tocsubsubsection {}{1.1.3}{Cat\IeC {\'e}gories <<non-concr\IeC {\`e}tes>>}}{6}{subsubsection.1.1.3}}
\@writefile{toc}{\contentsline {subsubsection}{\tocsubsubsection {}{1.1.4}{Contre-exemple}}{7}{subsubsection.1.1.4}}
\@writefile{toc}{\contentsline {subsubsection}{\tocsubsubsection {}{1.1.5}{Cat\IeC {\'e}gories petites et localement petites}}{7}{subsubsection.1.1.5}}
\@writefile{toc}{\contentsline {subsection}{\tocsubsection {}{1.2}{Constructions de cat\IeC {\'e}gories}}{8}{subsection.1.2}}
\@writefile{toc}{\contentsline {subsubsection}{\tocsubsubsection {}{1.2.1}{Cat\IeC {\'e}gories associ\IeC {\'e}es \IeC {\`a} des ensembles partiellement ordonn\IeC {\'e}s}}{8}{subsubsection.1.2.1}}
\newlabel{def:cat_epo}{{1}{9}{Catégorie associée à un ensemble partiellement ordonné}{defprop.1}{}}
\newlabel{def:cat_epo@cref}{{[defprop][1][]1}{9}}
\@writefile{toc}{\contentsline {subsubsection}{\tocsubsubsection {}{1.2.2}{Cat\IeC {\'e}gorie associ\IeC {\'e}e \IeC {\`a} un graphe}}{9}{subsubsection.1.2.2}}
\@writefile{toc}{\contentsline {subsubsection}{\tocsubsubsection {}{1.2.3}{Union disjointe de cat\IeC {\'e}gories}}{10}{subsubsection.1.2.3}}
\@writefile{toc}{\contentsline {subsubsection}{\tocsubsubsection {}{1.2.4}{Joint de cat\IeC {\'e}gories}}{11}{subsubsection.1.2.4}}
\@writefile{toc}{\contentsline {subsubsection}{\tocsubsubsection {}{1.2.5}{Produit de cat\IeC {\'e}gories}}{13}{subsubsection.1.2.5}}
\@writefile{toc}{\contentsline {subsubsection}{\tocsubsubsection {}{1.2.6}{Cat\IeC {\'e}gorie oppos\IeC {\'e}e}}{13}{subsubsection.1.2.6}}
\@writefile{toc}{\contentsline {subsubsection}{\tocsubsubsection {}{1.2.7}{Sous-cat\IeC {\'e}gories}}{14}{subsubsection.1.2.7}}
\@writefile{toc}{\contentsline {subsubsection}{\tocsubsubsection {}{1.2.8}{Intersection de sous-cat\IeC {\'e}gories}}{14}{subsubsection.1.2.8}}
\@writefile{toc}{\contentsline {subsection}{\tocsubsection {}{1.3}{Les cat\'egories en informatique}}{15}{subsection.1.3}}
\newlabel{ex:print}{{15}{15}{}{exem.15}{}}
\newlabel{ex:print@cref}{{[exem][15][]15}{15}}
\@writefile{toc}{\contentsline {subsection}{\tocsubsection {}{1.4}{Propri\IeC {\'e}t\IeC {\'e}s des morphismes}}{16}{subsection.1.4}}
\@writefile{toc}{\contentsline {subsubsection}{\tocsubsubsection {}{1.4.1}{Isomorphismes}}{16}{subsubsection.1.4.1}}
\@writefile{toc}{\contentsline {subsubsection}{\tocsubsubsection {}{1.4.2}{Monomorphismes et applications injectives}}{16}{subsubsection.1.4.2}}
\newlabel{prop:monofort}{{7}{18}{}{prop.7}{}}
\newlabel{prop:monofort@cref}{{[prop][7][]7}{18}}
\newlabel{defprop:SousCatMono}{{7}{18}{Sous-catégorie des monomorphismes}{defprop.7}{}}
\newlabel{defprop:SousCatMono@cref}{{[defprop][7][]7}{18}}
\@writefile{toc}{\contentsline {subsubsection}{\tocsubsubsection {}{1.4.3}{\'Epimorphismes et applications surjectives}}{18}{subsubsection.1.4.3}}
\newlabel{prop:epifort}{{11}{20}{}{prop.11}{}}
\newlabel{prop:epifort@cref}{{[prop][11][]11}{20}}
\@writefile{toc}{\contentsline {subsubsection}{\tocsubsubsection {}{1.4.4}{Relation monomorphismes-\IeC {\'e}pimorphismes-isomorphismes}}{20}{subsubsection.1.4.4}}
\@writefile{toc}{\contentsline {subsubsection}{\tocsubsubsection {}{1.4.5}{Caract\IeC {\'e}risation des monomorphismes, \IeC {\'e}pimorphismes et isomorphismes dans les cat\IeC {\'e}gories concr\IeC {\`e}tes}}{21}{subsubsection.1.4.5}}
\@writefile{toc}{\contentsline {subsection}{\tocsubsection {}{1.5}{Produits et coproduits}}{22}{subsection.1.5}}
\@writefile{toc}{\contentsline {subsubsection}{\tocsubsubsection {}{1.5.1}{Produits classiques}}{22}{subsubsection.1.5.1}}
\@writefile{toc}{\contentsline {subsubsection}{\tocsubsubsection {}{1.5.2}{Exemple motivant : produit cart\IeC {\'e}sien dans les ensembles}}{23}{subsubsection.1.5.2}}
\@writefile{toc}{\contentsline {subsubsection}{\tocsubsubsection {}{1.5.3}{D\'efinition g\'en\'erale.}}{23}{subsubsection.1.5.3}}
\@writefile{toc}{\contentsline {subsubsection}{\tocsubsubsection {}{1.5.4}{Propri\IeC {\'e}t\IeC {\'e}s des produits}}{24}{subsubsection.1.5.4}}
\newlabel{prop:ProdStabIso}{{18}{24}{Stabilité à isomorphisme près}{prop.18}{}}
\newlabel{prop:ProdStabIso@cref}{{[prop][18][]18}{24}}
\newlabel{prop:ProdIso}{{19}{25}{}{prop.19}{}}
\newlabel{prop:ProdIso@cref}{{[prop][19][]19}{25}}
\newlabel{prop:ComProd}{{20}{26}{}{prop.20}{}}
\newlabel{prop:ComProd@cref}{{[prop][20][]20}{26}}
\@writefile{toc}{\contentsline {subsubsection}{\tocsubsubsection {}{1.5.5}{Lien avec l'objet terminal}}{26}{subsubsection.1.5.5}}
\newlabel{prop:ProdTerm}{{21}{26}{}{prop.21}{}}
\newlabel{prop:ProdTerm@cref}{{[prop][21][]21}{26}}
\@writefile{toc}{\contentsline {subsubsection}{\tocsubsubsection {}{1.5.6}{Coproduit d'objets dans une cat\'egorie}}{26}{subsubsection.1.5.6}}
\@writefile{toc}{\contentsline {subsubsection}{\tocsubsubsection {}{1.5.7}{Propri\IeC {\'e}t\IeC {\'e}s des coproduits}}{27}{subsubsection.1.5.7}}
\newlabel{lem:ProdCoprod}{{1}{27}{}{lemm.1}{}}
\newlabel{lem:ProdCoprod@cref}{{[lemm][1][]1}{27}}
\@writefile{toc}{\contentsline {subsubsection}{\tocsubsubsection {}{1.5.8}{Lien avec l'objet initial}}{28}{subsubsection.1.5.8}}
\@writefile{toc}{\contentsline {section}{\tocsection {}{2}{Foncteurs}}{28}{section.2}}
\@writefile{toc}{\contentsline {subsection}{\tocsubsection {}{2.1}{D\IeC {\'e}finition et composition}}{28}{subsection.2.1}}
\@writefile{toc}{\contentsline {subsection}{\tocsubsection {}{2.2}{Cat\IeC {\'e}gories de cat\IeC {\'e}gories}}{30}{subsection.2.2}}
\@writefile{toc}{\contentsline {subsection}{\tocsubsection {}{2.3}{Propri\IeC {\'e}t\IeC {\'e}s des foncteurs}}{30}{subsection.2.3}}
\@writefile{toc}{\contentsline {section}{\tocsection {}{3}{Transformations naturelles}}{32}{section.3}}
\@writefile{toc}{\contentsline {subsection}{\tocsubsection {}{3.1}{D\IeC {\'e}finitions}}{32}{subsection.3.1}}
\newlabel{ex:EvMat}{{28}{33}{Espaces vectoriels de dimension finie et matrices}{exem.28}{}}
\newlabel{ex:EvMat@cref}{{[exem][28][]28}{33}}
\newlabel{prop:IsoNat=IsoFonc}{{28}{34}{}{prop.28}{}}
\newlabel{prop:IsoNat=IsoFonc@cref}{{[prop][28][]28}{34}}
\@writefile{toc}{\contentsline {subsection}{\tocsubsection {}{3.2}{\'Equivalence de cat\IeC {\'e}gories}}{35}{subsection.3.2}}
\@writefile{toc}{\contentsline {subsubsection}{\tocsubsubsection {}{3.2.1}{D\IeC {\'e}finition}}{35}{subsubsection.3.2.1}}
\@writefile{toc}{\contentsline {subsubsection}{\tocsubsubsection {}{3.2.2}{Caract\IeC {\'e}risation}}{36}{subsubsection.3.2.2}}
\newlabel{theo:EquivCat}{{1}{36}{}{theo.1}{}}
\newlabel{theo:EquivCat@cref}{{[theo][1][]1}{36}}
\@writefile{toc}{\contentsline {subsubsection}{\tocsubsubsection {}{3.2.3}{Cat\IeC {\'e}gories squel\IeC {\'e}tales}}{37}{subsubsection.3.2.3}}
\newlabel{thm:CatSq}{{2}{37}{}{theo.2}{}}
\newlabel{thm:CatSq@cref}{{[theo][2][]2}{37}}
\newlabel{lemm:SquelEqIso}{{2}{37}{}{lemm.2}{}}
\newlabel{lemm:SquelEqIso@cref}{{[lemm][2][]2}{37}}
\@writefile{toc}{\contentsline {subsection}{\tocsubsection {}{3.3}{Foncteurs repr\IeC {\'e}sentables}}{38}{subsection.3.3}}
\@writefile{toc}{\contentsline {subsubsection}{\tocsubsubsection {}{3.3.1}{D\IeC {\'e}finitions}}{38}{subsubsection.3.3.1}}
\newlabel{prop:ObjInitTerm}{{30}{38}{Caractérisation des objets initiaux et terminaux}{prop.30}{}}
\newlabel{prop:ObjInitTerm@cref}{{[prop][30][]30}{38}}
\@writefile{toc}{\contentsline {subsubsection}{\tocsubsubsection {}{3.3.2}{Vers la gare du Nord ...}}{39}{subsubsection.3.3.2}}
\newlabel{theo:LemmeYoneda}{{3}{39}{Lemme de Yoneda}{theo.3}{}}
\newlabel{theo:LemmeYoneda@cref}{{[theo][3][]3}{39}}
\@writefile{toc}{\contentsline {subsection}{\tocsubsection {}{3.4}{Monades et programmation}}{41}{subsection.3.4}}
\@writefile{toc}{\contentsline {section}{\tocsection {Annexe}{A}{Exercices}}{41}{appendix.A}}
\newlabel{exer:FoncIso}{{3}{42}{}{exer.3}{}}
\newlabel{exer:FoncIso@cref}{{[exer][3][2147483647]3}{42}}
\newlabel{tocindent-1}{0pt}
\newlabel{tocindent0}{13.72034pt}
\newlabel{tocindent1}{61.28703pt}
\newlabel{tocindent2}{28.62328pt}
\newlabel{tocindent3}{0pt}
