\BOOKMARK [1][-]{section.1}{\376\377\0001\000.\000\040\000I\000n\000t\000r\000o\000d\000u\000c\000t\000i\000o\000n\000\040\000:\000\040\000l\000'\000a\000l\000g\000\350\000b\000r\000e\000\040\000m\000o\000d\000e\000r\000n\000e}{}% 1
\BOOKMARK [2][-]{subsection.1.1}{\376\377\0001\000.\0001\000.\000\040\000L\000'\000A\000l\000g\000\350\000b\000r\000e\000\040\000o\000u\000\040\000l\000'\000a\000n\000a\000l\000y\000s\000e\000\040\000d\000e\000s\000\040\000\351\000q\000u\000a\000t\000i\000o\000n\000s}{section.1}% 2
\BOOKMARK [2][-]{subsection.1.2}{\376\377\0001\000.\0002\000.\000\040\000L\000'\000a\000l\000g\000\350\000b\000r\000e\000\040\000o\000u\000\040\000l\000'\000a\000x\000i\000o\000m\000a\000t\000i\000s\000a\000t\000i\000o\000n\000\040\000d\000e\000s\000\040\000s\000t\000r\000u\000c\000t\000u\000r\000e\000s\000\040\000a\000l\000g\000\351\000b\000r\000i\000q\000u\000e\000s}{section.1}% 3
\BOOKMARK [2][-]{subsection.1.3}{\376\377\0001\000.\0003\000.\000\040\000I\000n\000t\000\351\000r\000\352\000t\000s\000\040\000d\000e\000\040\000l\000'\000a\000x\000i\000o\000m\000a\000t\000i\000s\000a\000t\000i\000o\000n\000\040}{section.1}% 4
\BOOKMARK [2][-]{subsection.1.4}{\376\377\0001\000.\0004\000.\000\040\000L\000'\000A\000l\000g\000\350\000b\000r\000e\000\040\000m\000o\000d\000e\000r\000n\000e}{section.1}% 5
\BOOKMARK [2][-]{subsection.1.5}{\376\377\0001\000.\0005\000.\000\040\000B\000o\000u\000r\000b\000a\000k\000i}{section.1}% 6
\BOOKMARK [1][-]{section.2}{\376\377\0002\000.\000\040\000L\000'\000a\000l\000g\000\350\000b\000r\000e\000\040\000d\000e\000\040\000l\000'\000a\000l\000g\000\350\000b\000r\000e\000\040\000:\000\040\000l\000e\000s\000\040\000c\000a\000t\000\351\000g\000o\000r\000i\000e\000s}{}% 7
\BOOKMARK [2][-]{subsection.2.2}{\376\377\0002\000.\0002\000.\000\040\000D\000\351\000f\000i\000n\000i\000t\000i\000o\000n\000s}{section.2}% 8
\BOOKMARK [2][-]{subsection.2.5}{\376\377\0002\000.\0005\000.\000\040\000P\000e\000t\000i\000t\000e\000s\000\040\000c\000a\000t\000\351\000g\000o\000r\000i\000e\000s}{section.2}% 9
\BOOKMARK [2][-]{subsection.2.6}{\376\377\0002\000.\0006\000.\000\040\000C\000a\000t\000\351\000g\000o\000r\000i\000e\000s\000\040\000a\000s\000s\000o\000c\000i\000\351\000e\000s\000\040\000\340\000\040\000d\000e\000s\000\040\000e\000n\000s\000e\000m\000b\000l\000e\000s\000\040\000p\000a\000r\000t\000i\000e\000l\000l\000e\000m\000e\000n\000t\000\040\000o\000r\000d\000o\000n\000n\000\351\000e\000s}{section.2}% 10
