\relax 
\providecommand\babel@aux[2]{}
\@nameuse{bbl@beforestart}
\catcode `:\active 
\catcode `;\active 
\catcode `!\active 
\catcode `?\active 
\providecommand\hyper@newdestlabel[2]{}
\providecommand\HyperFirstAtBeginDocument{\AtBeginDocument}
\HyperFirstAtBeginDocument{\ifx\hyper@anchor\@undefined
\global\let\oldnewlabel\newlabel
\gdef\newlabel#1#2{\newlabelxx{#1}#2}
\gdef\newlabelxx#1#2#3#4#5#6{\oldnewlabel{#1}{{#2}{#3}}}
\AtEndDocument{\ifx\hyper@anchor\@undefined
\let\newlabel\oldnewlabel
\fi}
\fi}
\global\let\hyper@last\relax 
\gdef\HyperFirstAtBeginDocument#1{#1}
\providecommand\HyField@AuxAddToFields[1]{}
\providecommand\HyField@AuxAddToCoFields[2]{}
\babel@aux{french}{}
\@writefile{toc}{\contentsline {section}{\tocsection {}{1}{Introduction : l'algèbre moderne}}{1}{section.1}\protected@file@percent }
\@writefile{toc}{\contentsline {subsection}{\tocsubsection {}{1.1}{L'Algèbre ou l'analyse des équations}}{1}{subsection.1.1}\protected@file@percent }
\@writefile{toc}{\contentsline {subsection}{\tocsubsection {}{1.2}{L'algèbre ou l'axiomatisation des structures algébriques}}{2}{subsection.1.2}\protected@file@percent }
\@writefile{toc}{\contentsline {subsection}{\tocsubsection {}{1.3}{Intérêts de l'axiomatisation }}{3}{subsection.1.3}\protected@file@percent }
\@writefile{toc}{\contentsline {subsection}{\tocsubsection {}{1.4}{L'Algèbre moderne}}{4}{subsection.1.4}\protected@file@percent }
\@writefile{toc}{\contentsline {subsection}{\tocsubsection {}{1.5}{Bourbaki}}{4}{subsection.1.5}\protected@file@percent }
\@writefile{toc}{\contentsline {section}{\tocsection {}{2}{L'algèbre de l'algèbre : les catégories}}{4}{section.2}\protected@file@percent }
\@writefile{toc}{\contentsline {subsection}{\tocsubsection {}{2.2}{Définitions}}{4}{subsection.2.2}\protected@file@percent }
\@writefile{toc}{\contentsline {subsection}{\tocsubsection {}{2.5}{Petites catégories}}{4}{subsection.2.5}\protected@file@percent }
\@writefile{toc}{\contentsline {subsubsection}{\tocsubsubsection {}{2.5.1}{Définitions}}{5}{subsubsection.2.5.1}\protected@file@percent }
\@writefile{toc}{\contentsline {subsubsection}{\tocsubsubsection {}{2.5.2}{Exemples}}{5}{subsubsection.2.5.2}\protected@file@percent }
\@writefile{toc}{\contentsline {subsubsection}{\tocsubsubsection {}{2.5.3}{Contre-exemples}}{5}{subsubsection.2.5.3}\protected@file@percent }
\@writefile{toc}{\contentsline {subsection}{\tocsubsection {}{2.6}{Catégories associées à des ensembles partiellement ordonnés}}{5}{subsection.2.6}\protected@file@percent }
\@writefile{toc}{\contentsline {subsubsection}{\tocsubsubsection {}{2.6.1}{Ensembles partiellement ordonnés}}{5}{subsubsection.2.6.1}\protected@file@percent }
\@writefile{toc}{\contentsline {subsubsection}{\tocsubsubsection {}{2.6.2}{Graphes}}{6}{subsubsection.2.6.2}\protected@file@percent }
\@writefile{toc}{\contentsline {subsubsection}{\tocsubsubsection {}{2.6.3}{Constructions}}{6}{subsubsection.2.6.3}\protected@file@percent }
\bibstyle{amsalpha}
\newlabel{tocindent-1}{0pt}
\newlabel{tocindent0}{0pt}
\newlabel{tocindent1}{19.18437pt}
\newlabel{tocindent2}{28.62328pt}
\newlabel{tocindent3}{0pt}
\gdef \@abspage@last{7}
