graph {
	0;
	1;
	2;
	3;
	4;
	5;
	6;
	7;
	8;
	9;

	1 -- 1;
	1 -- 1;
	1 -- 1;
	1 -- 1;
	1 -- 1;
	1 -- 1;
	1 -- 1;
	1 -- 1;
	1 -- 1;
	1 -- 1;
	1 -- 1;
	1 -- 1;
	1 -- 1;
	1 -- 1;
	1 -- 1;
	1 -- 1;
	1 -- 1;
	1 -- 1;
	1 -- 1;
	1 -- 1;
	1 -- 1;
	1 -- 1;
	1 -- 1;
	1 -- 1;
	1 -- 1;
	1 -- 1;
	1 -- 1;
	1 -- 1;
	1 -- 1;
	1 -- 1;
	1 -- 1;
	1 -- 1;
	1 -- 1;
	1 -- 1;
	1 -- 1;
	1 -- 1;
	1 -- 1;
	1 -- 1;
	1 -- 1;
	1 -- 1;
	1 -- 1;
	1 -- 1;
	1 -- 1;
	1 -- 1;
	1 -- 1;
	1 -- 1;
	1 -- 1;
	1 -- 1;
	1 -- 1;
	1 -- 1;
	1 -- 1;
	1 -- 1;
	1 -- 1;
	1 -- 1;
	1 -- 1;
	1 -- 1;
	1 -- 1;
	1 -- 1;
	1 -- 1;
	1 -- 1;
	1 -- 1;
	1 -- 1;
	1 -- 1;
	1 -- 1;
	1 -- 1;
	1 -- 1;
	1 -- 1;
	1 -- 1;
	1 -- 1;
	1 -- 1;
	1 -- 1;
	1 -- 1;
	1 -- 1;
	1 -- 1;
	1 -- 1;
	1 -- 1;
	1 -- 1;
	1 -- 1;
	1 -- 1;
	1 -- 1;
	1 -- 1;
	1 -- 1;
	1 -- 1;
	1 -- 1;
	1 -- 1;
	1 -- 1;
	1 -- 1;
	1 -- 1;
	1 -- 4;
	1 -- 4;
	1 -- 4;
	1 -- 4;
	1 -- 4;
	1 -- 4;
	1 -- 4;
	1 -- 4;
	1 -- 4;
	1 -- 4;
	1 -- 4;
	1 -- 4;
	1 -- 4;
	1 -- 4;
	1 -- 4;
	1 -- 4;
	1 -- 4;
	1 -- 4;
	1 -- 4;
	1 -- 4;
	1 -- 4;
	1 -- 4;
	1 -- 4;
	1 -- 4;
	1 -- 4;
	1 -- 4;
	1 -- 4;
	1 -- 4;
	1 -- 4;
	1 -- 4;
	1 -- 4;
	1 -- 4;
	1 -- 4;
	1 -- 4;
	1 -- 4;
	1 -- 4;
	1 -- 4;
	1 -- 4;
	1 -- 4;
	1 -- 4;
	1 -- 4;
	1 -- 4;
	1 -- 4;
	1 -- 4;
	1 -- 4;
	1 -- 4;
	1 -- 4;
	1 -- 4;
	1 -- 4;
	1 -- 4;
	1 -- 4;
	1 -- 4;
	1 -- 4;
	1 -- 4;
	1 -- 4;
	1 -- 4;
	1 -- 4;
	1 -- 4;
	1 -- 4;
	1 -- 4;
	1 -- 4;
	1 -- 4;
	1 -- 4;
	1 -- 4;
	1 -- 4;
	1 -- 4;
	1 -- 4;
	1 -- 4;
	1 -- 4;
	1 -- 4;
	1 -- 4;
	1 -- 4;
	1 -- 4;
	1 -- 4;
	1 -- 4;
	1 -- 4;
	1 -- 4;
	1 -- 4;
	1 -- 4;
	1 -- 4;
	1 -- 4;
	1 -- 4;
	1 -- 4;
	1 -- 4;
	1 -- 4;
	1 -- 4;
	1 -- 4;
	1 -- 4;
	1 -- 4;
	1 -- 4;
	1 -- 4;
	1 -- 4;
	1 -- 4;
	1 -- 4;
	1 -- 4;
	1 -- 4;
	1 -- 4;
	1 -- 4;
	1 -- 4;
	1 -- 4;
	1 -- 4;
	1 -- 4;
	1 -- 4;
	1 -- 4;
	1 -- 4;
	1 -- 4;
	1 -- 4;
	1 -- 4;
	1 -- 4;
	1 -- 4;
	1 -- 4;
	1 -- 4;
	1 -- 4;
	1 -- 4;
	1 -- 4;
	1 -- 4;
	1 -- 4;
	1 -- 4;
	1 -- 4;
	1 -- 4;
	1 -- 4;
	1 -- 4;
	1 -- 6;
	1 -- 6;
	1 -- 6;
	1 -- 6;
	1 -- 6;
	1 -- 6;
	1 -- 6;
	1 -- 6;
	1 -- 6;
	1 -- 6;
	1 -- 6;
	1 -- 6;
	1 -- 6;
	1 -- 6;
	1 -- 6;
	1 -- 6;
	1 -- 6;
	1 -- 6;
	1 -- 6;
	1 -- 6;
	1 -- 6;
	1 -- 6;
	1 -- 6;
	1 -- 6;
	1 -- 6;
	1 -- 6;
	1 -- 6;
	1 -- 6;
	1 -- 6;
	1 -- 6;
	1 -- 6;
	1 -- 6;
	1 -- 6;
	1 -- 6;
	1 -- 6;
	1 -- 6;
	1 -- 6;
	1 -- 6;
	1 -- 6;
	1 -- 6;
	1 -- 6;
	1 -- 6;
	1 -- 6;
	1 -- 6;
	1 -- 6;
	1 -- 6;
	1 -- 6;
	1 -- 6;
	1 -- 6;
	1 -- 6;
	1 -- 6;
	1 -- 6;
	1 -- 6;
	1 -- 6;
	1 -- 6;
	1 -- 6;
	1 -- 6;
	1 -- 6;
	1 -- 6;
	1 -- 6;
	1 -- 6;
	1 -- 6;
	1 -- 6;
	1 -- 6;
	1 -- 6;
	1 -- 6;
	2 -- 2;
	2 -- 2;
	2 -- 2;
	2 -- 2;
	2 -- 2;
	2 -- 2;
	2 -- 2;
	2 -- 2;
	2 -- 2;
	2 -- 2;
	2 -- 2;
	2 -- 2;
	2 -- 2;
	2 -- 2;
	2 -- 2;
	2 -- 2;
	2 -- 2;
	2 -- 2;
	2 -- 2;
	2 -- 2;
	2 -- 2;
	2 -- 2;
	2 -- 5;
	2 -- 5;
	2 -- 5;
	2 -- 5;
	2 -- 5;
	2 -- 5;
	2 -- 5;
	2 -- 5;
	2 -- 5;
	2 -- 5;
	2 -- 5;
	2 -- 5;
	2 -- 5;
	2 -- 5;
	2 -- 5;
	2 -- 5;
	2 -- 5;
	2 -- 5;
	2 -- 5;
	2 -- 5;
	2 -- 5;
	2 -- 5;
	2 -- 5;
	2 -- 5;
	2 -- 5;
	2 -- 5;
	2 -- 5;
	2 -- 5;
	2 -- 7;
	2 -- 7;
	2 -- 7;
	2 -- 7;
	2 -- 7;
	2 -- 7;
	2 -- 7;
	2 -- 7;
	2 -- 7;
	2 -- 7;
	2 -- 7;
	2 -- 7;
	2 -- 7;
	2 -- 7;
	2 -- 7;
	2 -- 7;
	2 -- 7;
	2 -- 7;
	2 -- 7;
	2 -- 7;
	2 -- 7;
	2 -- 7;
	2 -- 7;
	2 -- 7;
	2 -- 7;
	2 -- 7;
	2 -- 7;
	2 -- 7;
	2 -- 7;
	2 -- 7;
	2 -- 7;
	2 -- 7;
	2 -- 7;
	2 -- 7;
	2 -- 7;
	2 -- 7;
	2 -- 7;
	2 -- 7;
	2 -- 7;
	2 -- 7;
	2 -- 7;
	2 -- 7;
	2 -- 7;
	2 -- 7;
	2 -- 7;
	2 -- 7;
	2 -- 7;
	2 -- 7;
	2 -- 7;
	2 -- 7;
	2 -- 7;
	2 -- 7;
	2 -- 7;
	2 -- 7;
	2 -- 7;
	2 -- 7;
	2 -- 7;
	2 -- 7;
	2 -- 7;
	2 -- 7;
	2 -- 7;
	2 -- 7;
	2 -- 7;
	2 -- 7;
	2 -- 7;
	2 -- 7;
	2 -- 9;
	2 -- 9;
	2 -- 9;
	2 -- 9;
	2 -- 9;
	2 -- 9;
	2 -- 9;
	2 -- 9;
	2 -- 9;
	2 -- 9;
	2 -- 9;
	2 -- 9;
	2 -- 9;
	2 -- 9;
	2 -- 9;
	2 -- 9;
	2 -- 9;
	2 -- 9;
	2 -- 9;
	2 -- 9;
	2 -- 9;
	2 -- 9;
	2 -- 9;
	2 -- 9;
	2 -- 9;
	2 -- 9;
	2 -- 9;
	2 -- 9;
	4 -- 4;
	4 -- 4;
	4 -- 4;
	4 -- 4;
	4 -- 4;
	4 -- 4;
	4 -- 4;
	4 -- 4;
	4 -- 4;
	4 -- 4;
	4 -- 4;
	4 -- 4;
	4 -- 4;
	4 -- 4;
	4 -- 4;
	4 -- 4;
	4 -- 4;
	4 -- 4;
	4 -- 4;
	4 -- 4;
	4 -- 4;
	4 -- 4;
	4 -- 4;
	4 -- 4;
	4 -- 4;
	4 -- 4;
	4 -- 4;
	4 -- 4;
	4 -- 4;
	4 -- 4;
	4 -- 4;
	4 -- 4;
	4 -- 4;
	4 -- 4;
	4 -- 4;
	4 -- 4;
	4 -- 4;
	4 -- 4;
	4 -- 4;
	4 -- 4;
	4 -- 4;
	4 -- 4;
	4 -- 4;
	4 -- 4;
	4 -- 4;
	4 -- 4;
	4 -- 4;
	4 -- 4;
	4 -- 4;
	4 -- 4;
	4 -- 4;
	4 -- 4;
	4 -- 4;
	4 -- 4;
	4 -- 4;
	4 -- 4;
	4 -- 4;
	4 -- 4;
	4 -- 4;
	4 -- 4;
	4 -- 4;
	4 -- 4;
	4 -- 4;
	4 -- 4;
	4 -- 4;
	4 -- 4;
	4 -- 4;
	4 -- 4;
	4 -- 4;
	4 -- 4;
	4 -- 4;
	4 -- 4;
	4 -- 4;
	4 -- 4;
	4 -- 4;
	4 -- 4;
	4 -- 4;
	4 -- 4;
	4 -- 4;
	4 -- 4;
	4 -- 4;
	4 -- 4;
	4 -- 4;
	4 -- 4;
	4 -- 4;
	4 -- 4;
	4 -- 4;
	4 -- 4;
	4 -- 4;
	4 -- 4;
	4 -- 4;
	4 -- 4;
	4 -- 4;
	4 -- 4;
	4 -- 4;
	4 -- 4;
	4 -- 4;
	4 -- 4;
	4 -- 4;
	4 -- 4;
	4 -- 4;
	4 -- 4;
	4 -- 4;
	4 -- 4;
	4 -- 4;
	4 -- 4;
	4 -- 4;
	4 -- 4;
	4 -- 4;
	4 -- 4;
	4 -- 4;
	4 -- 4;
	4 -- 4;
	4 -- 4;
	4 -- 4;
	4 -- 4;
	4 -- 4;
	4 -- 4;
	4 -- 4;
	4 -- 4;
	4 -- 4;
	4 -- 4;
	4 -- 4;
	4 -- 4;
	4 -- 4;
	4 -- 4;
	4 -- 4;
	4 -- 4;
	4 -- 4;
	4 -- 4;
	4 -- 4;
	4 -- 4;
	4 -- 4;
	4 -- 4;
	4 -- 4;
	4 -- 4;
	4 -- 4;
	4 -- 4;
	4 -- 4;
	4 -- 4;
	4 -- 4;
	4 -- 4;
	4 -- 4;
	4 -- 4;
	4 -- 4;
	4 -- 4;
	4 -- 4;
	4 -- 4;
	4 -- 4;
	4 -- 4;
	4 -- 4;
	4 -- 4;
	4 -- 4;
	4 -- 4;
	4 -- 4;
	4 -- 4;
	4 -- 4;
	4 -- 4;
	4 -- 4;
	4 -- 4;
	4 -- 4;
	4 -- 4;
	4 -- 4;
	4 -- 4;
	4 -- 4;
	4 -- 4;
	4 -- 4;
	4 -- 4;
	4 -- 4;
	4 -- 4;
	4 -- 4;
	4 -- 4;
	4 -- 4;
	4 -- 4;
	4 -- 4;
	4 -- 4;
	4 -- 4;
	4 -- 4;
	4 -- 4;
	4 -- 4;
	4 -- 4;
	4 -- 4;
	4 -- 6;
	4 -- 6;
	4 -- 6;
	4 -- 6;
	4 -- 6;
	4 -- 6;
	4 -- 6;
	4 -- 6;
	4 -- 6;
	4 -- 6;
	4 -- 6;
	4 -- 6;
	4 -- 6;
	4 -- 6;
	4 -- 6;
	4 -- 6;
	4 -- 6;
	4 -- 6;
	4 -- 6;
	4 -- 6;
	4 -- 6;
	4 -- 6;
	4 -- 6;
	4 -- 6;
	4 -- 6;
	4 -- 6;
	4 -- 6;
	4 -- 6;
	4 -- 6;
	4 -- 6;
	4 -- 6;
	4 -- 6;
	4 -- 6;
	4 -- 6;
	4 -- 6;
	4 -- 6;
	4 -- 6;
	4 -- 6;
	4 -- 6;
	4 -- 6;
	4 -- 6;
	4 -- 6;
	4 -- 6;
	4 -- 6;
	4 -- 6;
	4 -- 6;
	4 -- 6;
	4 -- 6;
	4 -- 6;
	4 -- 6;
	4 -- 6;
	4 -- 6;
	4 -- 6;
	4 -- 6;
	4 -- 6;
	4 -- 6;
	4 -- 6;
	4 -- 6;
	4 -- 6;
	4 -- 6;
	4 -- 6;
	4 -- 6;
	4 -- 6;
	4 -- 6;
	4 -- 6;
	4 -- 6;
	4 -- 6;
	4 -- 6;
	4 -- 6;
	4 -- 6;
	4 -- 6;
	4 -- 6;
	4 -- 6;
	4 -- 6;
	4 -- 6;
	4 -- 6;
	4 -- 6;
	4 -- 6;
	4 -- 6;
	4 -- 6;
	4 -- 6;
	4 -- 6;
	4 -- 6;
	4 -- 6;
	4 -- 6;
	4 -- 6;
	4 -- 6;
	4 -- 6;
	4 -- 6;
	4 -- 6;
	4 -- 6;
	4 -- 6;
	4 -- 6;
	4 -- 6;
	5 -- 5;
	5 -- 5;
	5 -- 5;
	5 -- 5;
	5 -- 5;
	5 -- 5;
	5 -- 5;
	5 -- 5;
	5 -- 5;
	5 -- 5;
	5 -- 5;
	5 -- 5;
	5 -- 5;
	5 -- 5;
	5 -- 5;
	5 -- 5;
	5 -- 5;
	5 -- 5;
	5 -- 5;
	5 -- 5;
	5 -- 5;
	5 -- 5;
	5 -- 5;
	5 -- 5;
	5 -- 5;
	5 -- 5;
	5 -- 5;
	5 -- 5;
	5 -- 5;
	5 -- 5;
	5 -- 5;
	5 -- 5;
	5 -- 5;
	5 -- 5;
	5 -- 5;
	5 -- 5;
	5 -- 5;
	5 -- 5;
	5 -- 5;
	5 -- 5;
	5 -- 5;
	5 -- 5;
	5 -- 5;
	5 -- 5;
	5 -- 7;
	5 -- 7;
	5 -- 7;
	5 -- 7;
	5 -- 7;
	5 -- 7;
	5 -- 7;
	5 -- 7;
	5 -- 7;
	5 -- 7;
	5 -- 7;
	5 -- 7;
	5 -- 7;
	5 -- 7;
	5 -- 7;
	5 -- 7;
	5 -- 7;
	5 -- 7;
	5 -- 7;
	5 -- 7;
	5 -- 7;
	5 -- 7;
	5 -- 7;
	5 -- 7;
	5 -- 7;
	5 -- 7;
	5 -- 7;
	5 -- 7;
	5 -- 7;
	5 -- 7;
	5 -- 7;
	5 -- 7;
	5 -- 7;
	5 -- 7;
	5 -- 7;
	5 -- 7;
	5 -- 7;
	5 -- 7;
	5 -- 7;
	5 -- 7;
	5 -- 7;
	5 -- 7;
	5 -- 7;
	5 -- 7;
	5 -- 7;
	5 -- 7;
	5 -- 7;
	5 -- 7;
	5 -- 7;
	5 -- 7;
	5 -- 7;
	5 -- 7;
	5 -- 7;
	5 -- 7;
	5 -- 7;
	5 -- 7;
	5 -- 7;
	5 -- 7;
	5 -- 7;
	5 -- 7;
	5 -- 7;
	5 -- 7;
	5 -- 7;
	5 -- 7;
	5 -- 7;
	5 -- 7;
	5 -- 7;
	5 -- 7;
	5 -- 7;
	5 -- 7;
	5 -- 7;
	5 -- 7;
	5 -- 7;
	5 -- 7;
	5 -- 7;
	5 -- 7;
	5 -- 7;
	5 -- 7;
	5 -- 7;
	5 -- 7;
	5 -- 7;
	5 -- 7;
	5 -- 7;
	5 -- 7;
	5 -- 7;
	5 -- 7;
	5 -- 7;
	5 -- 7;
	5 -- 7;
	5 -- 7;
	5 -- 7;
	5 -- 7;
	5 -- 7;
	5 -- 7;
	5 -- 9;
	5 -- 9;
	5 -- 9;
	5 -- 9;
	5 -- 9;
	5 -- 9;
	5 -- 9;
	5 -- 9;
	5 -- 9;
	5 -- 9;
	5 -- 9;
	5 -- 9;
	5 -- 9;
	5 -- 9;
	5 -- 9;
	5 -- 9;
	5 -- 9;
	5 -- 9;
	5 -- 9;
	5 -- 9;
	5 -- 9;
	5 -- 9;
	5 -- 9;
	5 -- 9;
	5 -- 9;
	5 -- 9;
	5 -- 9;
	5 -- 9;
	5 -- 9;
	5 -- 9;
	5 -- 9;
	5 -- 9;
	5 -- 9;
	5 -- 9;
	5 -- 9;
	5 -- 9;
	5 -- 9;
	5 -- 9;
	5 -- 9;
	5 -- 9;
	5 -- 9;
	5 -- 9;
	5 -- 9;
	5 -- 9;
	6 -- 6;
	6 -- 6;
	6 -- 6;
	6 -- 6;
	6 -- 6;
	6 -- 6;
	6 -- 6;
	6 -- 6;
	6 -- 6;
	6 -- 6;
	6 -- 6;
	6 -- 6;
	6 -- 6;
	6 -- 6;
	6 -- 6;
	6 -- 6;
	6 -- 6;
	6 -- 6;
	6 -- 6;
	6 -- 6;
	6 -- 6;
	6 -- 6;
	6 -- 6;
	6 -- 6;
	6 -- 6;
	6 -- 6;
	6 -- 6;
	6 -- 6;
	6 -- 6;
	6 -- 6;
	6 -- 6;
	6 -- 6;
	6 -- 6;
	6 -- 6;
	6 -- 6;
	6 -- 6;
	6 -- 6;
	6 -- 6;
	6 -- 6;
	6 -- 6;
	6 -- 6;
	6 -- 6;
	6 -- 6;
	6 -- 6;
	6 -- 6;
	6 -- 6;
	6 -- 6;
	6 -- 6;
	6 -- 6;
	6 -- 6;
	7 -- 7;
	7 -- 7;
	7 -- 7;
	7 -- 7;
	7 -- 7;
	7 -- 7;
	7 -- 7;
	7 -- 7;
	7 -- 7;
	7 -- 7;
	7 -- 7;
	7 -- 7;
	7 -- 7;
	7 -- 7;
	7 -- 7;
	7 -- 7;
	7 -- 7;
	7 -- 7;
	7 -- 7;
	7 -- 7;
	7 -- 7;
	7 -- 7;
	7 -- 7;
	7 -- 7;
	7 -- 7;
	7 -- 7;
	7 -- 7;
	7 -- 7;
	7 -- 7;
	7 -- 7;
	7 -- 7;
	7 -- 7;
	7 -- 7;
	7 -- 7;
	7 -- 7;
	7 -- 7;
	7 -- 7;
	7 -- 7;
	7 -- 7;
	7 -- 7;
	7 -- 7;
	7 -- 7;
	7 -- 7;
	7 -- 7;
	7 -- 7;
	7 -- 7;
	7 -- 7;
	7 -- 7;
	7 -- 7;
	7 -- 7;
	7 -- 7;
	7 -- 7;
	7 -- 7;
	7 -- 7;
	7 -- 7;
	7 -- 7;
	7 -- 7;
	7 -- 7;
	7 -- 7;
	7 -- 7;
	7 -- 7;
	7 -- 7;
	7 -- 7;
	7 -- 7;
	7 -- 7;
	7 -- 7;
	7 -- 7;
	7 -- 7;
	7 -- 7;
	7 -- 7;
	7 -- 7;
	7 -- 7;
	7 -- 7;
	7 -- 7;
	7 -- 7;
	7 -- 7;
	7 -- 7;
	7 -- 7;
	7 -- 7;
	7 -- 7;
	7 -- 7;
	7 -- 7;
	7 -- 7;
	7 -- 7;
	7 -- 7;
	7 -- 7;
	7 -- 7;
	7 -- 7;
	7 -- 7;
	7 -- 7;
	7 -- 7;
	7 -- 7;
	7 -- 7;
	7 -- 7;
	7 -- 7;
	7 -- 7;
	7 -- 7;
	7 -- 7;
	7 -- 7;
	7 -- 7;
	7 -- 7;
	7 -- 7;
	7 -- 7;
	7 -- 7;
	7 -- 7;
	7 -- 7;
	7 -- 7;
	7 -- 7;
	7 -- 7;
	7 -- 7;
	7 -- 7;
	7 -- 7;
	7 -- 7;
	7 -- 7;
	7 -- 7;
	7 -- 7;
	7 -- 7;
	7 -- 7;
	7 -- 7;
	7 -- 7;
	7 -- 7;
	7 -- 7;
	7 -- 7;
	7 -- 7;
	7 -- 7;
	7 -- 7;
	7 -- 7;
	7 -- 7;
	7 -- 7;
	7 -- 7;
	7 -- 7;
	7 -- 7;
	7 -- 7;
	7 -- 7;
	7 -- 7;
	7 -- 7;
	7 -- 7;
	7 -- 7;
	7 -- 7;
	7 -- 7;
	7 -- 7;
	7 -- 7;
	7 -- 7;
	7 -- 7;
	7 -- 7;
	7 -- 7;
	7 -- 7;
	7 -- 7;
	7 -- 7;
	7 -- 7;
	7 -- 7;
	7 -- 7;
	7 -- 7;
	7 -- 7;
	7 -- 7;
	7 -- 7;
	7 -- 7;
	7 -- 7;
	7 -- 7;
	7 -- 7;
	7 -- 7;
	7 -- 7;
	7 -- 7;
	7 -- 7;
	7 -- 7;
	7 -- 7;
	7 -- 7;
	7 -- 7;
	7 -- 7;
	7 -- 7;
	7 -- 7;
	7 -- 7;
	7 -- 7;
	7 -- 7;
	7 -- 7;
	7 -- 7;
	7 -- 7;
	7 -- 7;
	7 -- 7;
	7 -- 7;
	7 -- 7;
	7 -- 7;
	7 -- 7;
	7 -- 7;
	7 -- 7;
	7 -- 7;
	7 -- 7;
	7 -- 7;
	7 -- 7;
	7 -- 7;
	7 -- 7;
	7 -- 7;
	7 -- 7;
	7 -- 7;
	7 -- 7;
	7 -- 7;
	7 -- 7;
	7 -- 7;
	7 -- 7;
	7 -- 7;
	7 -- 7;
	7 -- 7;
	7 -- 7;
	7 -- 7;
	7 -- 7;
	7 -- 7;
	7 -- 7;
	7 -- 7;
	7 -- 7;
	7 -- 7;
	7 -- 9;
	7 -- 9;
	7 -- 9;
	7 -- 9;
	7 -- 9;
	7 -- 9;
	7 -- 9;
	7 -- 9;
	7 -- 9;
	7 -- 9;
	7 -- 9;
	7 -- 9;
	7 -- 9;
	7 -- 9;
	7 -- 9;
	7 -- 9;
	7 -- 9;
	7 -- 9;
	7 -- 9;
	7 -- 9;
	7 -- 9;
	7 -- 9;
	7 -- 9;
	7 -- 9;
	7 -- 9;
	7 -- 9;
	7 -- 9;
	7 -- 9;
	7 -- 9;
	7 -- 9;
	7 -- 9;
	7 -- 9;
	7 -- 9;
	7 -- 9;
	7 -- 9;
	7 -- 9;
	7 -- 9;
	7 -- 9;
	7 -- 9;
	7 -- 9;
	7 -- 9;
	7 -- 9;
	7 -- 9;
	7 -- 9;
	7 -- 9;
	7 -- 9;
	7 -- 9;
	7 -- 9;
	7 -- 9;
	7 -- 9;
	7 -- 9;
	7 -- 9;
	7 -- 9;
	7 -- 9;
	7 -- 9;
	7 -- 9;
	7 -- 9;
	7 -- 9;
	7 -- 9;
	7 -- 9;
	7 -- 9;
	7 -- 9;
	7 -- 9;
	7 -- 9;
	7 -- 9;
	7 -- 9;
	7 -- 9;
	7 -- 9;
	7 -- 9;
	7 -- 9;
	7 -- 9;
	7 -- 9;
	7 -- 9;
	7 -- 9;
	7 -- 9;
	7 -- 9;
	7 -- 9;
	7 -- 9;
	7 -- 9;
	7 -- 9;
	7 -- 9;
	7 -- 9;
	7 -- 9;
	7 -- 9;
	7 -- 9;
	7 -- 9;
	7 -- 9;
	7 -- 9;
	7 -- 9;
	7 -- 9;
	7 -- 9;
	7 -- 9;
	7 -- 9;
	7 -- 9;
	9 -- 9;
	9 -- 9;
	9 -- 9;
	9 -- 9;
	9 -- 9;
	9 -- 9;
	9 -- 9;
	9 -- 9;
	9 -- 9;
	9 -- 9;
	9 -- 9;
	9 -- 9;
	9 -- 9;
	9 -- 9;
	9 -- 9;
	9 -- 9;
	9 -- 9;
	9 -- 9;
	9 -- 9;
	9 -- 9;
	9 -- 9;
	9 -- 9;
	9 -- 9;
	9 -- 9;
	9 -- 9;
	9 -- 9;
	9 -- 9;
	9 -- 9;
	9 -- 9;
	9 -- 9;
	9 -- 9;
	9 -- 9;
	9 -- 9;
	9 -- 9;
	9 -- 9;
	9 -- 9;
	9 -- 9;
	9 -- 9;
	9 -- 9;
	9 -- 9;
	9 -- 9;
	9 -- 9;
	9 -- 9;
	9 -- 9;
}
