\relax 
\@writefile{toc}{\contentsline {section}{\numberline {1}Foncteurs}{1}{}\protected@file@percent }
\@writefile{toc}{\contentsline {subsection}{\numberline {1.1}Définition}{1}{}\protected@file@percent }
\@writefile{toc}{\contentsline {subsection}{\numberline {1.2}Foncteur identité \(\mathbb  {I}\)d}{2}{}\protected@file@percent }
\@writefile{toc}{\contentsline {subsection}{\numberline {1.3}Composition de foncteurs}{2}{}\protected@file@percent }
\@writefile{toc}{\contentsline {subsubsection}{\numberline {1.3.1}Justifiant que la composition est définie}{3}{}\protected@file@percent }
\@writefile{toc}{\contentsline {subsection}{\numberline {1.4}Catégories des petites catégories}{3}{}\protected@file@percent }
\@writefile{toc}{\contentsline {subsection}{\numberline {1.5}Catégories des catégories localement petites}{3}{}\protected@file@percent }
\@writefile{toc}{\contentsline {subsection}{\numberline {1.6}Foncteur plein}{4}{}\protected@file@percent }
\@writefile{toc}{\contentsline {subsection}{\numberline {1.7}Foncteur fidèle}{4}{}\protected@file@percent }
\@writefile{toc}{\contentsline {subsection}{\numberline {1.8}Mono-foncteur dans $\mathbf  {Cat}_\text  {loc}$ ou dans $\mathbf  {Cat}$}{4}{}\protected@file@percent }
\@writefile{toc}{\contentsline {subsection}{\numberline {1.9}Épi-foncteur dans $\mathbf  {Cat}_\text  {loc}$ ou dans $\mathbf  {Cat}$}{5}{}\protected@file@percent }
\@writefile{toc}{\contentsline {subsection}{\numberline {1.10}Iso-foncteur dans $\mathbf  {Cat}_\text  {loc}$ ou dans $\mathbf  {Cat}$}{5}{}\protected@file@percent }
\gdef \@abspage@last{5}
