\relax 
\providecommand\hyper@newdestlabel[2]{}
\catcode `:\active 
\catcode `;\active 
\catcode `!\active 
\catcode `?\active 
\providecommand\HyperFirstAtBeginDocument{\AtBeginDocument}
\HyperFirstAtBeginDocument{\ifx\hyper@anchor\@undefined
\global\let\oldcontentsline\contentsline
\gdef\contentsline#1#2#3#4{\oldcontentsline{#1}{#2}{#3}}
\global\let\oldnewlabel\newlabel
\gdef\newlabel#1#2{\newlabelxx{#1}#2}
\gdef\newlabelxx#1#2#3#4#5#6{\oldnewlabel{#1}{{#2}{#3}}}
\AtEndDocument{\ifx\hyper@anchor\@undefined
\let\contentsline\oldcontentsline
\let\newlabel\oldnewlabel
\fi}
\fi}
\global\let\hyper@last\relax 
\gdef\HyperFirstAtBeginDocument#1{#1}
\providecommand\HyField@AuxAddToFields[1]{}
\providecommand\HyField@AuxAddToCoFields[2]{}
\select@language{french}
\@writefile{toc}{\select@language{french}}
\@writefile{lof}{\select@language{french}}
\@writefile{lot}{\select@language{french}}
\@writefile{toc}{\contentsline {section}{\tocsection {}{1}{Introduction : l'alg\IeC {\`e}bre moderne}}{1}{section.1}}
\@writefile{toc}{\contentsline {subsection}{\tocsubsection {}{1.1}{L'Alg\IeC {\`e}bre ou l'analyse des \IeC {\'e}quations}}{1}{subsection.1.1}}
\@writefile{toc}{\contentsline {subsection}{\tocsubsection {}{1.2}{L'alg\IeC {\`e}bre ou l'axiomatisation des structures alg\IeC {\'e}briques}}{2}{subsection.1.2}}
\@writefile{toc}{\contentsline {subsection}{\tocsubsection {}{1.3}{Int\IeC {\'e}r\IeC {\^e}ts de l'axiomatisation }}{3}{subsection.1.3}}
\@writefile{toc}{\contentsline {subsection}{\tocsubsection {}{1.4}{L'Alg\IeC {\`e}bre moderne}}{4}{subsection.1.4}}
\@writefile{toc}{\contentsline {subsection}{\tocsubsection {}{1.5}{Bourbaki}}{4}{subsection.1.5}}
\@writefile{toc}{\contentsline {section}{\tocsection {}{2}{L'alg\IeC {\`e}bre de l'alg\IeC {\`e}bre : les cat\IeC {\'e}gories}}{4}{section.2}}
\bibstyle{amsalpha}
\bibdata{bib}
\newlabel{tocindent-1}{0pt}
\newlabel{tocindent0}{0pt}
\newlabel{tocindent1}{19.18437pt}
\newlabel{tocindent2}{28.62328pt}
\newlabel{tocindent3}{0pt}
