\relax 
\@setckpt{package}{
\setcounter{page}{1}
\setcounter{equation}{0}
\setcounter{enumi}{0}
\setcounter{enumii}{0}
\setcounter{enumiii}{0}
\setcounter{enumiv}{0}
\setcounter{footnote}{0}
\setcounter{mpfootnote}{0}
\setcounter{parentequation}{0}
\setcounter{part}{0}
\setcounter{section}{0}
\setcounter{subsection}{0}
\setcounter{subsubsection}{0}
\setcounter{paragraph}{0}
\setcounter{subparagraph}{0}
\setcounter{figure}{0}
\setcounter{table}{0}
\setcounter{Item}{0}
\setcounter{Hfootnote}{0}
\setcounter{bookmark@seq@number}{0}
\setcounter{prop}{0}
\setcounter{theo}{0}
\setcounter{coro}{0}
\setcounter{corollary}{0}
\setcounter{theointro}{0}
\setcounter{conjecture}{0}
\setcounter{lemm}{0}
\setcounter{defi}{0}
\setcounter{defprop}{0}
}
